<svg version="1.2" baseProfile="tiny-ps" xmlns="http://www.w3.org/2000/svg" viewBox="0 0 81 8" width="81" height="8">
	<title>journal</title>
	<style>
		tspan { white-space:pre }
		.shp0 { opacity: 0.2;fill: #191919 } 
	</style>
	<g id="journal">
		<path id="waves copy 2" class="shp0" d="M70.54 8L65.53 2.84L60.53 8L55.52 2.84L50.51 8L45.51 2.84L40.5 8L35.49 2.84L30.49 8L25.48 2.84L20.47 8L15.47 2.84L10.46 8L5.45 2.84L0.89 7.54L0 6.62L5.45 1L10.46 6.16L15.47 1L20.47 6.16L25.48 1L30.49 6.16L35.49 1L40.5 6.16L45.51 1L50.51 6.16L55.52 1L60.53 6.16L65.53 1L70.54 6.16L75.55 1L81 6.62L80.11 7.54L75.55 2.84L70.54 8Z" />
	</g>
</svg>